{
  "enc_token": "gAAAAABd2CJnw_qgzJZXzSOnv7AQ0Qil7fvNFMqUiFH29e2gqZyhc93Gsg87BDNmlZzzsQmCJ9DABjl-J3LyFsmhoMv7Ia_1eH7-xBw_P1cPFs7nNG4hvikuiqufNDppoi3xIjOxRjNwHx1I3_j2aJfxiffeBMi_HA==",
  "prefix": "="
}